<svg xmlns="http://www.w3.org/2000/svg" viewBox="0 0 138.63 138.63" width="138.63" height="138.63">
	<defs>
		<style>
			.cls-1{fill:#ffe500;}
			.cls-2{fill:#231815;}
		</style>
	</defs>
	<title>golds gym.</title>
	<circle class="cls-1" cx="69.31" cy="69.32" r="69.32" transform="translate(-7.5 130.22) rotate(-83.41)"/>
	<path class="cls-2" d="M69.31,5.9a63.42,63.42,0,1,0,63.42,63.42A63.49,63.49,0,0,0,69.31,5.9Zm48.3,30,4.18,5.35-7.61,1.68Zm-2.24,9.65c3.65-1.36,6.5,3.42,7.8,7.41a28.8,28.8,0,0,1,1.17,8l2.19,3.16L121,65.81c1.36-4.33.89-8.21-.32-12.73-.24-.87-1.22-3.16-2.08-2.9s-.45,2.16-.11,3.47c1,3.94,1.13,5.38,1.79,8.4.5,2.3.2,6.93-2.59,7.68-4,1.09-6.47-3.61-7.88-7.65-1-2.82-1.06-6.61-1.27-8.19a4.69,4.69,0,0,0-.51-1.8,6.51,6.51,0,0,0-2.25-2.68L112,47.54c-2.22,4.84-.3,12.17.22,13.65.59,1.65,1.43,3.58,2.24,3.33,1.5-.45.32-2.51-.08-4a49.58,49.58,0,0,1-1.67-7.63C112.39,49.84,112.53,46.62,115.37,45.56ZM90.08,28.49l4.57-6-1.58-5.59,9.15,6.94,5.89,4.47a10.81,10.81,0,0,1,4.48,5.59c.81,2.16,1.39,4.79-.3,6.87s-3.74,2-6.29,1.82a10.78,10.78,0,0,1-4.5-1.48,14,14,0,0,1-2.15-1.25l-5.66-4.28-9.87-7.49Zm14.73,40.82A35.45,35.45,0,1,1,69.36,33.85,35.49,35.49,0,0,1,104.81,69.31ZM55.28,12.7h18l-5.91,3.45v8h9.25l5.61-4.37v7.41H54.71l5.4-3.76v-7.3ZM35.4,23.86c4-3.71,11.82-7,15.38-2.67,2.94,3.55-1.4,11.3-5.38,14.4S32.45,42,29.6,38.35C26.13,34,30.93,27,35.4,23.86Zm-17,45.84c-4.44-1.23-5.09-10.34-3.59-15.15a24.44,24.44,0,0,1,1.49-4.12A14,14,0,0,1,19,46.25l-1.5-3,6.53,1.9a19.9,19.9,0,0,0-5.52,6.61,17,17,0,0,0-1.22,3.4A5,5,0,1,0,27,58a17.57,17.57,0,0,0,.58-2.86,9.23,9.23,0,0,0-.11-2.57l-1.08-.32-4.73,4.57,4.82-16.62,1.8,5.61,4.6,1.34L30.5,49.68a24.5,24.5,0,0,1-.11,4.53,31.59,31.59,0,0,1-.86,4.51C28.33,64.08,23.74,71.2,18.37,69.7Zm15.53,40a17.74,17.74,0,0,0,2.46,1.56,9.93,9.93,0,0,0,2.45.81l.68-.9-2.6-6,13.83,10.41-5.89-.31L42,119l-1.5-3.13a23.78,23.78,0,0,1-4.19-1.71,31.52,31.52,0,0,1-3.92-2.4c-4.57-3-9.6-9.85-6.29-14.34,2.73-3.71,11.47-1.08,15.43,2a24.42,24.42,0,0,1,3.33,2.86,14.25,14.25,0,0,1,2.92,4.07l3.29-.35-4.09,5.43A19.89,19.89,0,0,0,42.7,104,16.44,16.44,0,0,0,40,101.62a5,5,0,1,0-6.07,8Zm45.39,3.51L72.63,120v1.66l6,3.87h-19l5.69-3.87V120l-7.14-6.66-5.16-3H70.32l-3.65,3,4,3.66,3.7-4.25-3.22-2.41H84.12Zm31.53-7.36,1.13-5.31-5.5-5.9,3.83,11.72-2.57,2.39-11.1-4.87,5.43,5.83,5.24-.55L95.81,119.82l1.24-5.42L92,108.94l-5.84.85,11.1-10.36,6.15,3.26L101,95.89,110.61,87l-.82,5.43,5.09,5.46,5.67-1.09Z"/>
	<path class="cls-2" d="M101.55,37.08a3.94,3.94,0,0,0,4.12-1.65A4,4,0,0,0,106,31a5,5,0,0,0-2-2.08l-3.32-2.55-5.18,6.89,3.56,2.5A5.63,5.63,0,0,0,101.55,37.08Z"/>
	<path class="cls-2" d="M43.19,33.7A5.06,5.06,0,0,0,44,26.58,5.1,5.1,0,0,0,36.06,33,5.06,5.06,0,0,0,43.19,33.7Z"/>
	<path class="cls-2" d="M69.36,39.76A29.55,29.55,0,1,0,98.91,69.31,29.58,29.58,0,0,0,69.36,39.76Z"/>
	<path class="cls-1" d="M123.53,91.64a2.16,2.16,0,0,1-.3,1.73,2.22,2.22,0,0,1-1.44,1,2.3,2.3,0,0,1-1.73-.3,2.25,2.25,0,0,1-1-1.43,2.2,2.2,0,0,1,.3-1.73,2.22,2.22,0,0,1,1.43-1,2.17,2.17,0,0,1,1.72.3A2.2,2.2,0,0,1,123.53,91.64Zm-4.16,1a1.8,1.8,0,0,0,.87,1.22,1.94,1.94,0,0,0,1.5.28,2,2,0,0,0,1.23-.88,1.89,1.89,0,0,0,.26-1.5,1.93,1.93,0,0,0-.88-1.24,2,2,0,0,0-2.73.63A1.85,1.85,0,0,0,119.37,92.59Zm.83-1.08a2,2,0,0,1,.45-.53.62.62,0,0,1,.74,0,.51.51,0,0,1,.29.47.74.74,0,0,1-.09.38.57.57,0,0,1,.43-.23.63.63,0,0,1,.4.09l.16.1.16.1.12,0h0l-.23.36h0l-.07,0-.17-.1a.66.66,0,0,0-.64-.11,2.18,2.18,0,0,0-.3.37l-.19.3.83.53-.24.34-2.12-1.32Zm.59-.18a1.16,1.16,0,0,0-.36.41l-.21.32.77.47.21-.33a1.07,1.07,0,0,0,.18-.39.44.44,0,0,0-.59-.48Z"/>
	<path class="cls-1" d="M85.15,74c-.2-.2-.46-.29-.65-.49l.55-.83a.17.17,0,0,0,0-.09.13.13,0,0,0,0-.09,1,1,0,0,0-.6-.37c-.19,0-.26.24-.39.36H84s-.07-.07-.06-.11l.69-1a.17.17,0,0,0,0-.09.12.12,0,0,0,0-.08.88.88,0,0,0-.73-.37c-.15.09-.23.35-.35.35s0-.06-.06-.09l.61-.89a.26.26,0,0,0,0-.34c-.2-.16-.42-.4-.68-.22-.11.09-.16.25-.29.29a.14.14,0,0,1-.08-.07l.44-.65c.09-.15.23-.3.17-.5s-.24-.21-.37-.31a.31.31,0,0,0-.33.07c-.66.86-1.25,1.78-1.89,2.64l-1-.57a1.12,1.12,0,0,0,0-.22.53.53,0,0,0,0-.21c0-.19-.69-1-.88-1.57a13.32,13.32,0,0,1,.73-1.94,4.94,4.94,0,0,0,.16-3.37c.3-.74-.24-1.29-.33-1.95a4.25,4.25,0,0,0-.29-2.39,4.59,4.59,0,0,0-1.1-3.12,3.5,3.5,0,0,0-.68-2.21,3.35,3.35,0,0,0-3.47-1,4,4,0,0,0-1.86-1.49c-.25-.1-.53-.12-.78-.23-.33-.67-.08-1.49-.41-2.16a1.11,1.11,0,0,0,.08-.41,1.74,1.74,0,0,0,.62-1.64c-.08-.16-.14-.17-.25-.18a4.91,4.91,0,0,0-.29-2.57,2.36,2.36,0,0,0-.79-.84,3.44,3.44,0,0,0-3.28,0c-1.22.68-1.3,2.13-1.11,3.4-.09,0-.14,0-.24.13s-.06,1.47.63,1.68l.12.4c-.39.67,0,1.55-.4,2.2a4.63,4.63,0,0,0-1.78.84,3.34,3.34,0,0,0-.84,1,3.39,3.39,0,0,0-2.7.39,2.89,2.89,0,0,0-1.37,2.8,4,4,0,0,0-1.12,3.06c-.57,1.07,0,2-.17,2.41,0,0-.62,1.54-.35,1.89a6.34,6.34,0,0,0,.17,3.4c.23.69.56,1.35.82,2A12.77,12.77,0,0,1,58,70.12a.63.63,0,0,0-.1.23,1.31,1.31,0,0,0,0,.36l-1,.58h-.06L55,68.56l-.09-.06c-.17-.06-.29,0-.41.13s-.34.25-.26.45l.57.83s0,.12,0,.14-.23-.31-.45-.29-.56.23-.57.53a10,10,0,0,0,.58,1s-.07.08-.11,0S54,71,53.83,71a.87.87,0,0,0-.48.34c-.05.44.34.72.52,1.07a.14.14,0,0,1,0,.17c-.24,0-.23-.35-.48-.29s-.48.21-.51.48a4.52,4.52,0,0,0,.55,1c-.19.16-.41.3-.59.48s0,.19.09.28c.25.47.61-.14.9-.17.25.28.37.7.72.84a1.37,1.37,0,0,0,.51-.32c.23-.18-.05-.38-.09-.57s.08-.07.12,0l.58.81.15.11c.19,0,.33-.11.48-.19s.25-.21.18-.37-.23-.23-.12-.36.07,0,.09,0l.61.86.11.07a1,1,0,0,0,.74-.42c.07-.19-.12-.31-.18-.46s.11-.06.15,0a6.38,6.38,0,0,0,.67.88c.26.15.48-.12.68-.28a.39.39,0,0,0,0-.3l-1.92-2.77.86-.5s.26.33.41.38a.82.82,0,0,0,.68-.2.6.6,0,0,0,.48.14.52.52,0,0,0,.43-.26,1.21,1.21,0,0,0,.42.06.43.43,0,0,0,.39-.34.55.55,0,0,0,.48-.08c.29-.27.1-.72.06-1.07a12.1,12.1,0,0,1,1.86-.48,20.3,20.3,0,0,0-.5,2.84c-.19,3.14.32,6.06,2.68,8.17A14.07,14.07,0,0,1,65.91,82a10,10,0,0,0-1,2.27c-.77,2.87.75,5.32,1.87,7.66l.07.32a1.14,1.14,0,0,0-.26.23c-.07.1-.09.58-.2.84a15.82,15.82,0,0,0-1.15,1.6c-.63.24-1.14.51-1.1.92h.43s4.37,0,4.37,0A3.52,3.52,0,0,0,68.7,95a5.53,5.53,0,0,0,.13-1.78,7.64,7.64,0,0,1-.16-2.71l.39-3.6c.12,1.18.34,2.32.47,3.49a10.64,10.64,0,0,1-.15,2.79,4.22,4.22,0,0,0,.1,1.84,3.45,3.45,0,0,0-.22.75h4.82c0-.62-.68-.71-1.07-.94a5.36,5.36,0,0,0-1.11-1.43,4.39,4.39,0,0,1-.29-1,1.53,1.53,0,0,0-.31-.29l.07-.23a25,25,0,0,0,1.86-4.48,7.35,7.35,0,0,0-1-5.48,9.28,9.28,0,0,1,.31-1.5,8,8,0,0,0,1.07-1.18C75.45,77,75.45,73.47,75,70.51c0-.38-.2-.73-.24-1.09a14,14,0,0,1,1.87.55,3.49,3.49,0,0,0,0,.65.51.51,0,0,0,.24.45,1,1,0,0,0,.61.08.58.58,0,0,0,.4.24c.3.07.4,0,.4,0a.34.34,0,0,0,.27.24c.24,0,.49.12.67-.13.06.12.44.28.58.1a.67.67,0,0,0,.17-.32l.76.45,0,0L79,74.19l-.17.29a.3.3,0,0,0,.07.31c.2.09.39.36.62.25l.66-.91s.09,0,.11,0-.23.36,0,.53.39.34.65.25l.63-.86h.07c.14.12-.17.31-.11.5l.53.34a.23.23,0,0,0,.24,0l.56-.77.09-.05c.21.14-.09.29,0,.47a.89.89,0,0,0,.63.38,5.06,5.06,0,0,0,.7-.9c.27.13.48.38.78.43A.4.4,0,0,0,85.15,74Zm-20.5-7.69a2.92,2.92,0,0,0-.17.63,7.14,7.14,0,0,0-.94,1.79c-.73.18-1.45.37-2.16.59a5.71,5.71,0,0,0-.88-.95,9.12,9.12,0,0,1-.08-1.48c.06-.1.14-.17.2-.27v0l.11-.2a4,4,0,0,0-.11-4,3.51,3.51,0,0,1,.45-.62,4.78,4.78,0,0,0,1.48-.74A6.07,6.07,0,0,0,64.06,63a8.56,8.56,0,0,1,.79,2.82A2.8,2.8,0,0,0,64.65,66.34Zm12.68,2.07a3.47,3.47,0,0,0-.66.89c-.71-.19-1.4-.41-2.11-.57a5,5,0,0,0-1-1.74l-.21-.64a2.61,2.61,0,0,0-.24-.52,9.29,9.29,0,0,1,.78-2.89A7.8,7.8,0,0,0,75.41,61a3.43,3.43,0,0,0,1.52.74,2.15,2.15,0,0,1,.38.58,3.92,3.92,0,0,0-.55,2.37,3.65,3.65,0,0,0,.72,1.93.91.91,0,0,1,.1.13A6.32,6.32,0,0,1,77.33,68.41Z"/>
</svg>